singlecycle.vcd
$date
	Mon Nov 18 20:22:24 2024
$end
$version
	Icarus Verilog
$end
$timescale
	1ps
$end
$scope module SingleCycleProcTest_v $end
$var wire 64 ! currentPC [63:0] $end
$var wire 64 " MemtoRegOut [63:0] $end
$var reg 1 # CLK $end
$var reg 1 $ Reset_L $end
$var reg 8 % passed [7:0] $end
$var reg 64 & startPC [63:0] $end
$var reg 16 ' watchdog [15:0] $end
$scope module uut $end
$var wire 1 # CLK $end
$var wire 1 $ resetl $end
$var wire 64 ( startpc [63:0] $end
$var wire 1 ) zero $end
$var wire 1 * uncond_branch $end
$var wire 3 + signop [2:0] $end
$var wire 5 , rn [4:0] $end
$var wire 5 - rm [4:0] $end
$var wire 1 . regwrite $end
$var wire 64 / regoutB [63:0] $end
$var wire 64 0 regoutA [63:0] $end
$var wire 1 1 reg2loc $end
$var wire 64 2 readdata [63:0] $end
$var wire 5 3 rd [4:0] $end
$var wire 11 4 opcode [10:0] $end
$var wire 64 5 nextpc [63:0] $end
$var wire 1 6 memwrite $end
$var wire 1 7 memread $end
$var wire 1 8 mem2reg $end
$var wire 32 9 instruction [31:0] $end
$var wire 64 : extimm [63:0] $end
$var wire 1 ; branch $end
$var wire 1 < alusrc $end
$var wire 64 = aluout [63:0] $end
$var wire 4 > aluctrl [3:0] $end
$var wire 64 ? alu_in2 [63:0] $end
$var wire 64 @ MemtoRegOut [63:0] $end
$var reg 64 A currentpc [63:0] $end
$scope module alu $end
$var wire 64 B BusB [63:0] $end
$var wire 1 ) Zero $end
$var wire 64 C BusA [63:0] $end
$var wire 4 D ALUCtrl [3:0] $end
$var reg 64 E BusW [63:0] $end
$upscope $end
$scope module control $end
$var wire 11 F opcode [10:0] $end
$var reg 4 G aluop [3:0] $end
$var reg 1 < alusrc $end
$var reg 1 ; branch $end
$var reg 1 8 mem2reg $end
$var reg 1 7 memread $end
$var reg 1 6 memwrite $end
$var reg 1 1 reg2loc $end
$var reg 1 . regwrite $end
$var reg 3 H signop [2:0] $end
$var reg 1 * uncond_branch $end
$upscope $end
$scope module dmem $end
$var wire 64 I Address [63:0] $end
$var wire 1 # Clock $end
$var wire 1 7 MemoryRead $end
$var wire 1 6 MemoryWrite $end
$var wire 64 J WriteData [63:0] $end
$var reg 64 K ReadData [63:0] $end
$scope task initset $end
$var reg 64 L addr [63:0] $end
$var reg 64 M data [63:0] $end
$upscope $end
$upscope $end
$scope module imem $end
$var wire 64 N Address [63:0] $end
$var reg 32 O Data [31:0] $end
$upscope $end
$scope module nextpclogic $end
$var wire 1 ) ALUZero $end
$var wire 1 ; Branch $end
$var wire 64 P CurrentPC [63:0] $end
$var wire 64 Q NextPC [63:0] $end
$var wire 1 * Uncondbranch $end
$var wire 64 R SignExtImm64 [63:0] $end
$var reg 64 S next_address [63:0] $end
$upscope $end
$scope module regfile $end
$var wire 64 T BusW [63:0] $end
$var wire 1 # Clk $end
$var wire 5 U RA [4:0] $end
$var wire 5 V RB [4:0] $end
$var wire 5 W RW [4:0] $end
$var wire 1 . RegWr $end
$var wire 64 X BusB [63:0] $end
$var wire 64 Y BusA [63:0] $end
$upscope $end
$scope module sext $end
$var wire 3 Z Ctrl [2:0] $end
$var wire 26 [ Inst [25:0] $end
$var reg 64 \ BusImm [63:0] $end
$upscope $end
$upscope $end
$scope task allPassed $end
$var reg 8 ] numTests [7:0] $end
$var reg 8 ^ passed [7:0] $end
$upscope $end
$scope task passTest $end
$var reg 64 _ actualOut [63:0] $end
$var reg 64 ` expectedOut [63:0] $end
$var reg 8 a passed [7:0] $end
$var reg 257 b testType [256:0] $end
$upscope $end
$upscope $end
$enddefinitions $end
#0
$dumpvars
bx b
bx a
bx `
bx _
bx ^
bx ]
bx \
bx [
bx Z
bx Y
bx X
bx W
bx V
bx U
bx T
bx S
bx R
bx Q
bx P
bx O
bx N
b0 M
b100000 L
bx K
bx J
bx I
bx H
bx G
bx F
bx E
bx D
bx C
bx B
bx A
bx @
bx ?
bx >
bx =
x<
x;
bx :
bx 9
x8
x7
x6
bx 5
bx 4
bx 3
bx 2
x1
bx 0
bx /
x.
bx -
bx ,
bx +
x*
x)
b0 (
b0 '
b0 &
b0 %
1$
0#
bx "
bx !
$end
#60000
1#
#120000
b1 '
0#
#121000
0$
#180000
1#
#240000
b10 '
0#
#243000
b0 ?
b0 B
b0 :
b0 R
b0 \
b1 +
b1 H
b1 Z
b10 >
b10 D
b10 G
0*
0;
06
17
1.
18
1<
b0x00x ,
b0x00x V
b10000000000001111101001 [
b11111000010 4
b11111000010 F
b11111 -
b11111 U
b1001 3
b1001 W
b11111000010000000000001111101001 9
b11111000010000000000001111101001 O
b100 5
b100 Q
b100 S
b0 !
b0 A
b0 N
b0 P
#245000
1)
b0 =
b0 E
b0 I
b0 0
b0 C
b0 Y
#300000
b1 "
b1 @
b1 T
b1 2
b1 K
1$
1#
#360000
b11 '
0#
#363000
0)
b1000 =
b1000 E
b1000 I
b1000 ?
b1000 B
b1000 :
b1000 R
b1000 \
b0x0x0 ,
b0x0x0 V
b10000001000001111101010 [
b1010 3
b1010 W
b11111000010000001000001111101010 9
b11111000010000001000001111101010 O
b1000 5
b1000 Q
b1000 S
b100 !
b100 A
b100 N
b100 P
#420000
b1010 "
b1010 @
b1010 T
b1010 2
b1010 K
1#
#480000
b100 '
0#
#483000
b10000 =
b10000 E
b10000 I
b10000 ?
b10000 B
b10000 :
b10000 R
b10000 \
b0x0x1 ,
b0x0x1 V
b10000010000001111101011 [
b1011 3
b1011 W
b11111000010000010000001111101011 9
b11111000010000010000001111101011 O
b1100 5
b1100 Q
b1100 S
b1000 !
b1000 A
b1000 N
b1000 P
#540000
b101 "
b101 @
b101 T
b101 2
b101 K
1#
#600000
b101 '
0#
#603000
b11000 =
b11000 E
b11000 I
b11000 ?
b11000 B
b11000 :
b11000 R
b11000 \
b0xx0x ,
b0xx0x V
b10000011000001111101100 [
b1100 3
b1100 W
b11111000010000011000001111101100 9
b11111000010000011000001111101100 O
b10000 5
b10000 Q
b10000 S
b1100 !
b1100 A
b1100 N
b1100 P
#660000
b111111111011111010100111110111101010110110111110111011111111 "
b111111111011111010100111110111101010110110111110111011111111 @
b111111111011111010100111110111101010110110111110111011111111 T
b111111111011111010100111110111101010110110111110111011111111 2
b111111111011111010100111110111101010110110111110111011111111 K
1#
#720000
b110 '
0#
#723000
b100000 =
b100000 E
b100000 I
b100000 ?
b100000 B
b100000 :
b100000 R
b100000 \
b0xxxx ,
b0xxxx V
b10000100000001111101101 [
b1101 3
b1101 W
b11111000010000100000001111101101 9
b11111000010000100000001111101101 O
b10100 5
b10100 Q
b10100 S
b10000 !
b10000 A
b10000 N
b10000 P
#780000
b0 "
b0 @
b0 T
b0 2
b0 K
1#
#840000
b111 '
0#
#843000
x)
bx =
bx E
bx I
bx "
bx @
bx T
bx ?
bx B
b0 :
b0 R
b0 \
bx +
bx H
bx Z
b1 >
b1 D
b1 G
07
08
0<
01
b1011 ,
b1011 V
b10000010110000000101001010 [
b10101010000 4
b10101010000 F
b1010 -
b1010 U
b1010 3
b1010 W
b10101010000010110000000101001010 9
b10101010000010110000000101001010 O
b11000 5
b11000 Q
b11000 S
b10100 !
b10100 A
b10100 N
b10100 P
#845000
0)
b1111 "
b1111 @
b1111 T
b101 ?
b101 B
b1111 =
b1111 E
b1111 I
b101 /
b101 J
b101 X
b1010 0
b1010 C
b1010 Y
#900000
1#
#960000
b1000 '
0#
#963000
1)
b0 "
b0 @
b0 T
b0 =
b0 E
b0 I
b0 >
b0 D
b0 G
b1010 ,
b1010 V
b10000010100000000110001100 [
b10001010000 4
b10001010000 F
b1100 -
b1100 U
b1100 3
b1100 W
b10001010000010100000000110001100 9
b10001010000010100000000110001100 O
b11100 5
b11100 Q
b11100 S
b11000 !
b11000 A
b11000 N
b11000 P
#965000
0)
b1111 "
b1111 @
b1111 T
b1111 ?
b1111 B
b1111 =
b1111 E
b1111 I
b1111 /
b1111 J
b1111 X
b111111111011111010100111110111101010110110111110111011111111 0
b111111111011111010100111110111101010110110111110111011111111 C
b111111111011111010100111110111101010110110111110111011111111 Y
#1020000
1#
#1080000
b1001 '
0#
#1083000
b0xxxx "
b0xxxx @
b0xxxx T
b100 :
b100 R
b100 \
b11 +
b11 H
b11 Z
b111 >
b111 D
b111 G
1;
0.
x8
11
b1100 ,
b1100 V
b10001100 [
b10110100000 4
b10110100000 F
b100 -
b100 U
b10110100000000000000000010001100 9
b10110100000000000000000010001100 O
b100000 5
b100000 Q
b100000 S
b11100 !
b11100 A
b11100 N
b11100 P
#1085000
bx 0
bx C
bx Y
#1140000
1#
#1200000
b1010 '
0#
#1203000
x)
bx =
bx E
bx I
bx "
bx @
bx T
b0 :
b0 R
b0 \
bx +
bx H
bx Z
b10 >
b10 D
b10 G
0;
1.
08
01
b1001 ,
b1001 V
b11000010010000000110101101 [
b10001011000 4
b10001011000 F
b1101 -
b1101 U
b1101 3
b1101 W
b10001011000010010000000110101101 9
b10001011000010010000000110101101 O
b100100 5
b100100 Q
b100100 S
b100000 !
b100000 A
b100000 N
b100000 P
#1205000
0)
b1 "
b1 @
b1 T
b1 ?
b1 B
b1 =
b1 E
b1 I
b1 /
b1 J
b1 X
b0 0
b0 C
b0 Y
#1260000
1#
#1320000
b1011 '
0#
#1323000
b1111111111111111111111111111111111111111111111111111111111111111 "
b1111111111111111111111111111111111111111111111111111111111111111 @
b1111111111111111111111111111111111111111111111111111111111111111 T
b1111111111111111111111111111111111111111111111111111111111111111 =
b1111111111111111111111111111111111111111111111111111111111111111 E
b1111111111111111111111111111111111111111111111111111111111111111 I
b110 >
b110 D
b110 G
b11000010010000000110001100 [
b11001011000 4
b11001011000 F
b1100 -
b1100 U
b1100 3
b1100 W
b11001011000010010000000110001100 9
b11001011000010010000000110001100 O
b101000 5
b101000 Q
b101000 S
b100100 !
b100100 A
b100100 N
b100100 P
#1325000
b1110 "
b1110 @
b1110 T
b1110 =
b1110 E
b1110 I
b1111 0
b1111 C
b1111 Y
#1380000
1#
#1440000
b1100 '
0#
#1443000
1)
b0 =
b0 E
b0 I
b0 "
b0 @
b0 T
bx01 ?
bx01 B
b1111111111111111111111111111111111111111111111111111111111111101 :
b1111111111111111111111111111111111111111111111111111111111111101 R
b1111111111111111111111111111111111111111111111111111111111111101 \
b10 +
b10 H
b10 Z
bx >
bx D
bx G
1*
x;
0.
x8
x<
x1
b111x1 ,
b111x1 V
b11111111111111111111111101 [
b10111111 4
b10111111 F
b11111 -
b11111 U
b11101 3
b11101 W
b10111111111111111111111111101 9
b10111111111111111111111111101 O
b11100 5
b11100 Q
b11100 S
b101000 !
b101000 A
b101000 N
b101000 P
#1445000
bx ?
bx B
bx /
bx J
bx X
b0 0
b0 C
b0 Y
#1500000
1#
#1560000
b1101 '
0#
#1563000
x)
bx "
bx @
bx T
bx =
bx E
bx I
b100 :
b100 R
b100 \
b11 +
b11 H
b11 Z
b111 >
b111 D
b111 G
0*
1;
0<
11
b1100 ,
b1100 V
b10001100 [
b10110100000 4
b10110100000 F
b100 -
b100 U
b1100 3
b1100 W
b10110100000000000000000010001100 9
b10110100000000000000000010001100 O
b100000 5
b100000 Q
b100000 S
b11100 !
b11100 A
b11100 N
b11100 P
#1565000
0)
b0xxx0 "
b0xxx0 @
b0xxx0 T
b1110 =
b1110 E
b1110 I
b1110 ?
b1110 B
b1110 /
b1110 J
b1110 X
bx 0
bx C
bx Y
#1620000
1#
#1680000
b1110 '
0#
#1683000
x)
bx =
bx E
bx I
bx "
bx @
bx T
b0 :
b0 R
b0 \
bx +
bx H
bx Z
b10 >
b10 D
b10 G
0;
1.
08
01
b1001 ,
b1001 V
b11000010010000000110101101 [
b10001011000 4
b10001011000 F
b1101 -
b1101 U
b1101 3
b1101 W
b10001011000010010000000110101101 9
b10001011000010010000000110101101 O
b100100 5
b100100 Q
b100100 S
b100000 !
b100000 A
b100000 N
b100000 P
#1685000
0)
b10 "
b10 @
b10 T
b1 ?
b1 B
b10 =
b10 E
b10 I
b1 /
b1 J
b1 X
b1 0
b1 C
b1 Y
#1740000
1#
#1800000
b1111 '
0#
#1803000
1)
b0 "
b0 @
b0 T
b0 =
b0 E
b0 I
b110 >
b110 D
b110 G
b11000010010000000110001100 [
b11001011000 4
b11001011000 F
b1100 -
b1100 U
b1100 3
b1100 W
b11001011000010010000000110001100 9
b11001011000010010000000110001100 O
b101000 5
b101000 Q
b101000 S
b100100 !
b100100 A
b100100 N
b100100 P
#1805000
0)
b1101 "
b1101 @
b1101 T
b1101 =
b1101 E
b1101 I
b1110 0
b1110 C
b1110 Y
#1860000
1#
#1920000
b10000 '
0#
#1923000
1)
b0 =
b0 E
b0 I
b0 "
b0 @
b0 T
bx01 ?
bx01 B
b1111111111111111111111111111111111111111111111111111111111111101 :
b1111111111111111111111111111111111111111111111111111111111111101 R
b1111111111111111111111111111111111111111111111111111111111111101 \
b10 +
b10 H
b10 Z
bx >
bx D
bx G
1*
x;
0.
x8
x<
x1
b111x1 ,
b111x1 V
b11111111111111111111111101 [
b10111111 4
b10111111 F
b11111 -
b11111 U
b11101 3
b11101 W
b10111111111111111111111111101 9
b10111111111111111111111111101 O
b11100 5
b11100 Q
b11100 S
b101000 !
b101000 A
b101000 N
b101000 P
#1925000
bx ?
bx B
bx /
bx J
bx X
b0 0
b0 C
b0 Y
#1980000
1#
#2040000
b10001 '
0#
#2043000
x)
bx "
bx @
bx T
bx =
bx E
bx I
b100 :
b100 R
b100 \
b11 +
b11 H
b11 Z
b111 >
b111 D
b111 G
0*
1;
0<
11
b1100 ,
b1100 V
b10001100 [
b10110100000 4
b10110100000 F
b100 -
b100 U
b1100 3
b1100 W
b10110100000000000000000010001100 9
b10110100000000000000000010001100 O
b100000 5
b100000 Q
b100000 S
b11100 !
b11100 A
b11100 N
b11100 P
#2045000
0)
b0xx0x "
b0xx0x @
b0xx0x T
b1101 =
b1101 E
b1101 I
b1101 ?
b1101 B
b1101 /
b1101 J
b1101 X
bx 0
bx C
bx Y
#2100000
1#
#2160000
b10010 '
0#
#2163000
x)
bx =
bx E
bx I
bx "
bx @
bx T
b0 :
b0 R
b0 \
bx +
bx H
bx Z
b10 >
b10 D
b10 G
0;
1.
08
01
b1001 ,
b1001 V
b11000010010000000110101101 [
b10001011000 4
b10001011000 F
b1101 -
b1101 U
b1101 3
b1101 W
b10001011000010010000000110101101 9
b10001011000010010000000110101101 O
b100100 5
b100100 Q
b100100 S
b100000 !
b100000 A
b100000 N
b100000 P
#2165000
0)
b11 "
b11 @
b11 T
b1 ?
b1 B
b11 =
b11 E
b11 I
b1 /
b1 J
b1 X
b10 0
b10 C
b10 Y
#2220000
1#
#2280000
b10011 '
0#
#2283000
b1 "
b1 @
b1 T
b1 =
b1 E
b1 I
b110 >
b110 D
b110 G
b11000010010000000110001100 [
b11001011000 4
b11001011000 F
b1100 -
b1100 U
b1100 3
b1100 W
b11001011000010010000000110001100 9
b11001011000010010000000110001100 O
b101000 5
b101000 Q
b101000 S
b100100 !
b100100 A
b100100 N
b100100 P
#2285000
b1100 "
b1100 @
b1100 T
b1100 =
b1100 E
b1100 I
b1101 0
b1101 C
b1101 Y
#2340000
1#
#2400000
b10100 '
0#
#2403000
1)
b0 =
b0 E
b0 I
b0 "
b0 @
b0 T
bx01 ?
bx01 B
b1111111111111111111111111111111111111111111111111111111111111101 :
b1111111111111111111111111111111111111111111111111111111111111101 R
b1111111111111111111111111111111111111111111111111111111111111101 \
b10 +
b10 H
b10 Z
bx >
bx D
bx G
1*
x;
0.
x8
x<
x1
b111x1 ,
b111x1 V
b11111111111111111111111101 [
b10111111 4
b10111111 F
b11111 -
b11111 U
b11101 3
b11101 W
b10111111111111111111111111101 9
b10111111111111111111111111101 O
b11100 5
b11100 Q
b11100 S
b101000 !
b101000 A
b101000 N
b101000 P
#2405000
bx ?
bx B
bx /
bx J
bx X
b0 0
b0 C
b0 Y
#2460000
1#
#2520000
b10101 '
0#
#2523000
x)
bx "
bx @
bx T
bx =
bx E
bx I
b100 :
b100 R
b100 \
b11 +
b11 H
b11 Z
b111 >
b111 D
b111 G
0*
1;
0<
11
b1100 ,
b1100 V
b10001100 [
b10110100000 4
b10110100000 F
b100 -
b100 U
b1100 3
b1100 W
b10110100000000000000000010001100 9
b10110100000000000000000010001100 O
b100000 5
b100000 Q
b100000 S
b11100 !
b11100 A
b11100 N
b11100 P
#2525000
0)
b0xx00 "
b0xx00 @
b0xx00 T
b1100 =
b1100 E
b1100 I
b1100 ?
b1100 B
b1100 /
b1100 J
b1100 X
bx 0
bx C
bx Y
#2580000
1#
#2640000
b10110 '
0#
#2643000
x)
bx =
bx E
bx I
bx "
bx @
bx T
b0 :
b0 R
b0 \
bx +
bx H
bx Z
b10 >
b10 D
b10 G
0;
1.
08
01
b1001 ,
b1001 V
b11000010010000000110101101 [
b10001011000 4
b10001011000 F
b1101 -
b1101 U
b1101 3
b1101 W
b10001011000010010000000110101101 9
b10001011000010010000000110101101 O
b100100 5
b100100 Q
b100100 S
b100000 !
b100000 A
b100000 N
b100000 P
#2645000
0)
b100 "
b100 @
b100 T
b1 ?
b1 B
b100 =
b100 E
b100 I
b1 /
b1 J
b1 X
b11 0
b11 C
b11 Y
#2700000
1#
#2760000
b10111 '
0#
#2763000
b10 "
b10 @
b10 T
b10 =
b10 E
b10 I
b110 >
b110 D
b110 G
b11000010010000000110001100 [
b11001011000 4
b11001011000 F
b1100 -
b1100 U
b1100 3
b1100 W
b11001011000010010000000110001100 9
b11001011000010010000000110001100 O
b101000 5
b101000 Q
b101000 S
b100100 !
b100100 A
b100100 N
b100100 P
#2765000
b1011 "
b1011 @
b1011 T
b1011 =
b1011 E
b1011 I
b1100 0
b1100 C
b1100 Y
#2820000
1#
#2880000
b11000 '
0#
#2883000
1)
b0 =
b0 E
b0 I
b0 "
b0 @
b0 T
bx01 ?
bx01 B
b1111111111111111111111111111111111111111111111111111111111111101 :
b1111111111111111111111111111111111111111111111111111111111111101 R
b1111111111111111111111111111111111111111111111111111111111111101 \
b10 +
b10 H
b10 Z
bx >
bx D
bx G
1*
x;
0.
x8
x<
x1
b111x1 ,
b111x1 V
b11111111111111111111111101 [
b10111111 4
b10111111 F
b11111 -
b11111 U
b11101 3
b11101 W
b10111111111111111111111111101 9
b10111111111111111111111111101 O
b11100 5
b11100 Q
b11100 S
b101000 !
b101000 A
b101000 N
b101000 P
#2885000
bx ?
bx B
bx /
bx J
bx X
b0 0
b0 C
b0 Y
#2940000
1#
#3000000
b11001 '
0#
#3003000
x)
bx "
bx @
bx T
bx =
bx E
bx I
b100 :
b100 R
b100 \
b11 +
b11 H
b11 Z
b111 >
b111 D
b111 G
0*
1;
0<
11
b1100 ,
b1100 V
b10001100 [
b10110100000 4
b10110100000 F
b100 -
b100 U
b1100 3
b1100 W
b10110100000000000000000010001100 9
b10110100000000000000000010001100 O
b100000 5
b100000 Q
b100000 S
b11100 !
b11100 A
b11100 N
b11100 P
#3005000
0)
b0x0xx "
b0x0xx @
b0x0xx T
b1011 =
b1011 E
b1011 I
b1011 ?
b1011 B
b1011 /
b1011 J
b1011 X
bx 0
bx C
bx Y
#3060000
1#
#3120000
b11010 '
0#
#3123000
x)
bx =
bx E
bx I
bx "
bx @
bx T
b0 :
b0 R
b0 \
bx +
bx H
bx Z
b10 >
b10 D
b10 G
0;
1.
08
01
b1001 ,
b1001 V
b11000010010000000110101101 [
b10001011000 4
b10001011000 F
b1101 -
b1101 U
b1101 3
b1101 W
b10001011000010010000000110101101 9
b10001011000010010000000110101101 O
b100100 5
b100100 Q
b100100 S
b100000 !
b100000 A
b100000 N
b100000 P
#3125000
0)
b101 "
b101 @
b101 T
b1 ?
b1 B
b101 =
b101 E
b101 I
b1 /
b1 J
b1 X
b100 0
b100 C
b100 Y
#3180000
1#
#3240000
b11011 '
0#
#3243000
b11 "
b11 @
b11 T
b11 =
b11 E
b11 I
b110 >
b110 D
b110 G
b11000010010000000110001100 [
b11001011000 4
b11001011000 F
b1100 -
b1100 U
b1100 3
b1100 W
b11001011000010010000000110001100 9
b11001011000010010000000110001100 O
b101000 5
b101000 Q
b101000 S
b100100 !
b100100 A
b100100 N
b100100 P
#3245000
b1010 "
b1010 @
b1010 T
b1010 =
b1010 E
b1010 I
b1011 0
b1011 C
b1011 Y
#3300000
1#
#3360000
b11100 '
0#
#3363000
1)
b0 =
b0 E
b0 I
b0 "
b0 @
b0 T
bx01 ?
bx01 B
b1111111111111111111111111111111111111111111111111111111111111101 :
b1111111111111111111111111111111111111111111111111111111111111101 R
b1111111111111111111111111111111111111111111111111111111111111101 \
b10 +
b10 H
b10 Z
bx >
bx D
bx G
1*
x;
0.
x8
x<
x1
b111x1 ,
b111x1 V
b11111111111111111111111101 [
b10111111 4
b10111111 F
b11111 -
b11111 U
b11101 3
b11101 W
b10111111111111111111111111101 9
b10111111111111111111111111101 O
b11100 5
b11100 Q
b11100 S
b101000 !
b101000 A
b101000 N
b101000 P
#3365000
bx ?
bx B
bx /
bx J
bx X
b0 0
b0 C
b0 Y
#3420000
1#
#3480000
b11101 '
0#
#3483000
x)
bx "
bx @
bx T
bx =
bx E
bx I
b100 :
b100 R
b100 \
b11 +
b11 H
b11 Z
b111 >
b111 D
b111 G
0*
1;
0<
11
b1100 ,
b1100 V
b10001100 [
b10110100000 4
b10110100000 F
b100 -
b100 U
b1100 3
b1100 W
b10110100000000000000000010001100 9
b10110100000000000000000010001100 O
b100000 5
b100000 Q
b100000 S
b11100 !
b11100 A
b11100 N
b11100 P
#3485000
0)
b0x0x0 "
b0x0x0 @
b0x0x0 T
b1010 =
b1010 E
b1010 I
b1010 ?
b1010 B
b1010 /
b1010 J
b1010 X
bx 0
bx C
bx Y
#3540000
1#
#3600000
b11110 '
0#
#3603000
x)
bx =
bx E
bx I
bx "
bx @
bx T
b0 :
b0 R
b0 \
bx +
bx H
bx Z
b10 >
b10 D
b10 G
0;
1.
08
01
b1001 ,
b1001 V
b11000010010000000110101101 [
b10001011000 4
b10001011000 F
b1101 -
b1101 U
b1101 3
b1101 W
b10001011000010010000000110101101 9
b10001011000010010000000110101101 O
b100100 5
b100100 Q
b100100 S
b100000 !
b100000 A
b100000 N
b100000 P
#3605000
0)
b110 "
b110 @
b110 T
b1 ?
b1 B
b110 =
b110 E
b110 I
b1 /
b1 J
b1 X
b101 0
b101 C
b101 Y
#3660000
1#
#3720000
b11111 '
0#
#3723000
b100 "
b100 @
b100 T
b100 =
b100 E
b100 I
b110 >
b110 D
b110 G
b11000010010000000110001100 [
b11001011000 4
b11001011000 F
b1100 -
b1100 U
b1100 3
b1100 W
b11001011000010010000000110001100 9
b11001011000010010000000110001100 O
b101000 5
b101000 Q
b101000 S
b100100 !
b100100 A
b100100 N
b100100 P
#3725000
b1001 "
b1001 @
b1001 T
b1001 =
b1001 E
b1001 I
b1010 0
b1010 C
b1010 Y
#3780000
1#
#3840000
b100000 '
0#
#3843000
1)
b0 =
b0 E
b0 I
b0 "
b0 @
b0 T
bx01 ?
bx01 B
b1111111111111111111111111111111111111111111111111111111111111101 :
b1111111111111111111111111111111111111111111111111111111111111101 R
b1111111111111111111111111111111111111111111111111111111111111101 \
b10 +
b10 H
b10 Z
bx >
bx D
bx G
1*
x;
0.
x8
x<
x1
b111x1 ,
b111x1 V
b11111111111111111111111101 [
b10111111 4
b10111111 F
b11111 -
b11111 U
b11101 3
b11101 W
b10111111111111111111111111101 9
b10111111111111111111111111101 O
b11100 5
b11100 Q
b11100 S
b101000 !
b101000 A
b101000 N
b101000 P
#3845000
bx ?
bx B
bx /
bx J
bx X
b0 0
b0 C
b0 Y
#3900000
1#
#3960000
b100001 '
0#
#3963000
x)
bx "
bx @
bx T
bx =
bx E
bx I
b100 :
b100 R
b100 \
b11 +
b11 H
b11 Z
b111 >
b111 D
b111 G
0*
1;
0<
11
b1100 ,
b1100 V
b10001100 [
b10110100000 4
b10110100000 F
b100 -
b100 U
b1100 3
b1100 W
b10110100000000000000000010001100 9
b10110100000000000000000010001100 O
b100000 5
b100000 Q
b100000 S
b11100 !
b11100 A
b11100 N
b11100 P
#3965000
0)
b0x00x "
b0x00x @
b0x00x T
b1001 =
b1001 E
b1001 I
b1001 ?
b1001 B
b1001 /
b1001 J
b1001 X
bx 0
bx C
bx Y
#4020000
1#
#4080000
b100010 '
0#
#4083000
x)
bx =
bx E
bx I
bx "
bx @
bx T
b0 :
b0 R
b0 \
bx +
bx H
bx Z
b10 >
b10 D
b10 G
0;
1.
08
01
b1001 ,
b1001 V
b11000010010000000110101101 [
b10001011000 4
b10001011000 F
b1101 -
b1101 U
b1101 3
b1101 W
b10001011000010010000000110101101 9
b10001011000010010000000110101101 O
b100100 5
b100100 Q
b100100 S
b100000 !
b100000 A
b100000 N
b100000 P
#4085000
0)
b111 "
b111 @
b111 T
b1 ?
b1 B
b111 =
b111 E
b111 I
b1 /
b1 J
b1 X
b110 0
b110 C
b110 Y
#4140000
1#
#4200000
b100011 '
0#
#4203000
b101 "
b101 @
b101 T
b101 =
b101 E
b101 I
b110 >
b110 D
b110 G
b11000010010000000110001100 [
b11001011000 4
b11001011000 F
b1100 -
b1100 U
b1100 3
b1100 W
b11001011000010010000000110001100 9
b11001011000010010000000110001100 O
b101000 5
b101000 Q
b101000 S
b100100 !
b100100 A
b100100 N
b100100 P
#4205000
b1000 "
b1000 @
b1000 T
b1000 =
b1000 E
b1000 I
b1001 0
b1001 C
b1001 Y
#4260000
1#
#4320000
b100100 '
0#
#4323000
1)
b0 =
b0 E
b0 I
b0 "
b0 @
b0 T
bx01 ?
bx01 B
b1111111111111111111111111111111111111111111111111111111111111101 :
b1111111111111111111111111111111111111111111111111111111111111101 R
b1111111111111111111111111111111111111111111111111111111111111101 \
b10 +
b10 H
b10 Z
bx >
bx D
bx G
1*
x;
0.
x8
x<
x1
b111x1 ,
b111x1 V
b11111111111111111111111101 [
b10111111 4
b10111111 F
b11111 -
b11111 U
b11101 3
b11101 W
b10111111111111111111111111101 9
b10111111111111111111111111101 O
b11100 5
b11100 Q
b11100 S
b101000 !
b101000 A
b101000 N
b101000 P
#4325000
bx ?
bx B
bx /
bx J
bx X
b0 0
b0 C
b0 Y
#4380000
1#
#4440000
b100101 '
0#
#4443000
x)
bx "
bx @
bx T
bx =
bx E
bx I
b100 :
b100 R
b100 \
b11 +
b11 H
b11 Z
b111 >
b111 D
b111 G
0*
1;
0<
11
b1100 ,
b1100 V
b10001100 [
b10110100000 4
b10110100000 F
b100 -
b100 U
b1100 3
b1100 W
b10110100000000000000000010001100 9
b10110100000000000000000010001100 O
b100000 5
b100000 Q
b100000 S
b11100 !
b11100 A
b11100 N
b11100 P
#4445000
0)
b0x000 "
b0x000 @
b0x000 T
b1000 =
b1000 E
b1000 I
b1000 ?
b1000 B
b1000 /
b1000 J
b1000 X
bx 0
bx C
bx Y
#4500000
1#
#4560000
b100110 '
0#
#4563000
x)
bx =
bx E
bx I
bx "
bx @
bx T
b0 :
b0 R
b0 \
bx +
bx H
bx Z
b10 >
b10 D
b10 G
0;
1.
08
01
b1001 ,
b1001 V
b11000010010000000110101101 [
b10001011000 4
b10001011000 F
b1101 -
b1101 U
b1101 3
b1101 W
b10001011000010010000000110101101 9
b10001011000010010000000110101101 O
b100100 5
b100100 Q
b100100 S
b100000 !
b100000 A
b100000 N
b100000 P
#4565000
0)
b1000 "
b1000 @
b1000 T
b1 ?
b1 B
b1000 =
b1000 E
b1000 I
b1 /
b1 J
b1 X
b111 0
b111 C
b111 Y
#4620000
1#
#4680000
b100111 '
0#
#4683000
b110 "
b110 @
b110 T
b110 =
b110 E
b110 I
b110 >
b110 D
b110 G
b11000010010000000110001100 [
b11001011000 4
b11001011000 F
b1100 -
b1100 U
b1100 3
b1100 W
b11001011000010010000000110001100 9
b11001011000010010000000110001100 O
b101000 5
b101000 Q
b101000 S
b100100 !
b100100 A
b100100 N
b100100 P
#4685000
b111 "
b111 @
b111 T
b111 =
b111 E
b111 I
b1000 0
b1000 C
b1000 Y
#4740000
1#
#4800000
b101000 '
0#
#4803000
1)
b0 =
b0 E
b0 I
b0 "
b0 @
b0 T
bx01 ?
bx01 B
b1111111111111111111111111111111111111111111111111111111111111101 :
b1111111111111111111111111111111111111111111111111111111111111101 R
b1111111111111111111111111111111111111111111111111111111111111101 \
b10 +
b10 H
b10 Z
bx >
bx D
bx G
1*
x;
0.
x8
x<
x1
b111x1 ,
b111x1 V
b11111111111111111111111101 [
b10111111 4
b10111111 F
b11111 -
b11111 U
b11101 3
b11101 W
b10111111111111111111111111101 9
b10111111111111111111111111101 O
b11100 5
b11100 Q
b11100 S
b101000 !
b101000 A
b101000 N
b101000 P
#4805000
bx ?
bx B
bx /
bx J
bx X
b0 0
b0 C
b0 Y
#4860000
1#
#4920000
b101001 '
0#
#4923000
x)
bx "
bx @
bx T
bx =
bx E
bx I
b100 :
b100 R
b100 \
b11 +
b11 H
b11 Z
b111 >
b111 D
b111 G
0*
1;
0<
11
b1100 ,
b1100 V
b10001100 [
b10110100000 4
b10110100000 F
b100 -
b100 U
b1100 3
b1100 W
b10110100000000000000000010001100 9
b10110100000000000000000010001100 O
b100000 5
b100000 Q
b100000 S
b11100 !
b11100 A
b11100 N
b11100 P
#4925000
0)
b0xxx "
b0xxx @
b0xxx T
b111 =
b111 E
b111 I
b111 ?
b111 B
b111 /
b111 J
b111 X
bx 0
bx C
bx Y
#4980000
1#
#5040000
b101010 '
0#
